…
df %>% count(`Campus affiliation  (dept/div) and role (undergrad, grad, staff, faculty, other)`) %>% arrange(desc(n))

## # A tibble: 59 × 2
##    Campus affiliation  (dept/div) and role (undergrad, grad, staff, facu…¹     n
##    <chr>                                                                   <int>
##  1 Grad                                                                       19
##  2 grad                                                                        7
##  3 Harris                                                                      6
##  4 BSD                                                                         5
##  5 Grad student                                                                3
##  6 Harris student                                                              3
##  7 PSD, grad                                                                   3
##  8 Harris MPP                                                                  2
##  9 PSD grad                                                                    2
## 10 Booth                                                                       1
## # … with 49 more rows, and abbreviated variable name
## #   ¹​`Campus affiliation  (dept/div) and role (undergrad, grad, staff, faculty, other)`
## # ℹ Use `print(n = ...)` to see more rows
…
